<svg width="63" height="63" fill="none" xmlns="http://www.w3.org/2000/svg">
    <path fill-rule="evenodd" clip-rule="evenodd" d="M62.966 30.022a31.5 31.5 0 1 0-32.945 32.944 31.585 31.585 0 0 0 32.945-32.944Zm-50.311-4.05a1.267 1.267 0 0 1-.488-1.462 20.535 20.535 0 0 1 35.743-5.351c1.5 2-.533 4.062-3.378 6.2-2.72 2.046-5.423 3.71-5.423 3.71a4.945 4.945 0 0 1-5.144-.358l-4.342-3.086a4.949 4.949 0 0 0-5.143-.358l-4.73 2.453a4.95 4.95 0 0 1-5.142-.36l-1.945-1.381-.008-.007ZM50.834 38.49a20.537 20.537 0 0 1-35.745 5.352c-1.5-2 .534-4.063 3.378-6.2 2.72-2.048 5.424-3.713 5.424-3.713a4.947 4.947 0 0 1 5.143.36l4.343 3.086a4.951 4.951 0 0 0 5.143.36l4.731-2.451a4.949 4.949 0 0 1 5.142.359l1.943 1.38a1.27 1.27 0 0 1 .498 1.469v-.002Z" fill="#55C2D8"/>
</svg>
